Working with Data in R
…
---

### Data Frames vs. `Tibbles`

```
# A tibble: 32 x 11
    mpg   cyl  disp    hp  drat    wt  qsec    vs    am  gear  carb
  <dbl> <dbl> <dbl> <dbl> <dbl> <dbl> <dbl> <dbl> <dbl> <dbl> <dbl>
1  21       6   160   110  3.9   2.62  16.5     0     1     4     4
2  21       6   160   110  3.9   2.88  17.0     0     1     4     4
3  22.8     4   108    93  3.85  2.32  18.6     1     1     4     1
4  21.4     6   258   110  3.08  3.22  19.4     1     0     3     1
5  18.7     8   360   175  3.15  3.44  17.0     0     0     3     2
6  18.1     6   225   105  2.76  3.46  20.2     1     0     3     1
# ... with 26 more rows
```

---

class: middle inverse center
.font75[Vectors in R]

---

## Numeric Vectors (integer and double)

`SibSp` Number of Siblings/Spouses Aboard on Titanic

```
# A tibble: 891 x 2
  SibSp  Fare
  <int> <dbl>
1     1  7.25
2     1 71.3 
3     0  7.92
4     1 53.1 
5     0  8.05
6     0  8.46
# ... with 885 more rows
```

---

## Character Vectors

`SibSp` Number of Siblings/Spouses Aboard on Titanic

```
# A tibble: 891 x 2
  Name                                                Ticket          
  <chr>                                               <chr>           
1 Braund, Mr. Owen Harris                             A/5 21171       
2 Cumings, Mrs. John Bradley (Florence Briggs Thayer) PC 17599        
3 Heikkinen, Miss. Laina                              STON/O2. 3101282
4 Futrelle, Mrs. Jacques Heath (Lily May Peel)        113803          
5 Allen, Mr. William Henry                            373450          
6 Moran, Mr. James                                    330877          
# ... with 885 more rows
```

---

## Logical

Do you have any children under eighteen?

```
# A tibble: 1,040 x 1
  children_under_18
  <lgl>            
1 NA               
2 TRUE             
3 FALSE            
4 FALSE            
5 FALSE            
6 TRUE             
# ... with 1,034 more rows
```

---

## Factor

a.k.a. categorical variable in statistics

```
# A tibble: 891 x 1
  Embarked   
  <chr>      
1 Southampton
2 Cherbourg  
3 Southampton
4 Southampton
5 Southampton
6 Queenstown 
# ... with 885 more rows
```

---

## Ordered factor

Is it rude to recline your seat on a plane?

```
# A tibble: 1,040 x 1
  recline_rude
  <ord>       
1 <NA>        
2 Somewhat    
3 No          
4 No          
5 No          
6 No          
# ... with 1,034 more rows
```
…
---

## Cleaning variable names

`clean_names()` changes variable names consistent with the tidyverse style.

```r
clean_names(lapd)
```

```
# A tibble: 14,824 x 3
  department_title base_pay employment_type
  <chr>               <dbl> <chr>          
1 Police (LAPD)     119322. Full Time      
2 Police (LAPD)     113271. Full Time      
3 Police (LAPD)     148116  Full Time      
4 Police (LAPD)      78677. Full Time      
5 Police (LAPD)     109374. Full Time      
6 Police (LAPD)      95002. Full Time      
# ... with 14,818 more rows
```

---

## Renaming variables

```r
clean_names(lapd) %>% 
  rename(dept_title = department_title)
```

```
# A tibble: 14,824 x 3
  dept_title    base_pay employment_type
  <chr>            <dbl> <chr>          
1 Police (LAPD)  119322. Full Time      
2 Police (LAPD)  113271. Full Time      
3 Police (LAPD)  148116  Full Time      
4 Police (LAPD)   78677. Full Time      
5 Police (LAPD)  109374. Full Time      
6 Police (LAPD)   95002. Full Time      
# ... with 14,818 more rows
```

---

## Renaming variables

More than one variable within a single `rename()` function can be renamed.

```r
clean_names(lapd) %>% 
  rename(dept_title = department_title,
         emp_type = employment_type)
```

```
# A tibble: 14,824 x 3
  dept_title    base_pay emp_type 
  <chr>            <dbl> <chr>    
1 Police (LAPD)  119322. Full Time
2 Police (LAPD)  113271. Full Time
3 Police (LAPD)  148116  Full Time
4 Police (LAPD)   78677. Full Time
5 Police (LAPD)  109374. Full Time
6 Police (LAPD)   95002. Full Time
# ... with 14,818 more rows
```
…
class: middle

### Making changes to variable types 

`mutate()` function helps make create new variables or make changes to existing ones.

```r
clean_names(lapd) %>% 
  rename(dept_title = department_title,
         emp_type = employment_type) %>% 
  mutate(emp_type2 = as.factor(emp_type))
```

```
# A tibble: 14,824 x 4
  dept_title    base_pay emp_type  emp_type2
  <chr>            <dbl> <chr>     <fct>    
1 Police (LAPD)  119322. Full Time Full Time
2 Police (LAPD)  113271. Full Time Full Time
3 Police (LAPD)  148116  Full Time Full Time
4 Police (LAPD)   78677. Full Time Full Time
5 Police (LAPD)  109374. Full Time Full Time
6 Police (LAPD)   95002. Full Time Full Time
# ... with 14,818 more rows
```
…
class: middle

### Making changes to variable types

We normally would not call the new variable as `emp_type2` instead we would call it `emp_type` to override the older version.

```r
clean_names(lapd) %>% 
  rename(dept_title = department_title,
         emp_type = employment_type) %>% 
  mutate(emp_type = as.factor(emp_type))
```

```
# A tibble: 14,824 x 3
  dept_title    base_pay emp_type 
  <chr>            <dbl> <fct>    
1 Police (LAPD)  119322. Full Time
2 Police (LAPD)  113271. Full Time
3 Police (LAPD)  148116  Full Time
4 Police (LAPD)   78677. Full Time
5 Police (LAPD)  109374. Full Time
6 Police (LAPD)   95002. Full Time
# ... with 14,818 more rows
```
…
---

Why does lapd object does not reflect any of the data cleaning that we have accomplished? 

```r
lapd
```

```
# A tibble: 14,824 x 3
  `Department Title` `Base Pay` `Employment Type`
  <chr>                   <dbl> <chr>            
1 Police (LAPD)         119322. Full Time        
2 Police (LAPD)         113271. Full Time        
3 Police (LAPD)         148116  Full Time        
4 Police (LAPD)          78677. Full Time        
5 Police (LAPD)         109374. Full Time        
6 Police (LAPD)          95002. Full Time        
# ... with 14,818 more rows
```
…
---

class: middle

```r
lapd
```

```
# A tibble: 14,824 x 3
  dept_title    base_pay emp_type 
  <chr>            <dbl> <fct>    
1 Police (LAPD)  119322. Full Time
2 Police (LAPD)  113271. Full Time
3 Police (LAPD)  148116  Full Time
4 Police (LAPD)   78677. Full Time
5 Police (LAPD)  109374. Full Time
6 Police (LAPD)   95002. Full Time
# ... with 14,818 more rows
```
…
