Web Scraping
…
---
class: middle

```r
imdb_top_250 %>%
  group_by(year) %>%
  summarize(avg_rating = mean(rating)) %>% 
  arrange(desc(avg_rating))
```

```
# A tibble: 86 × 2
   year avg_rating
  <dbl>      <dbl>
1  1972       9.1 
2  1994       8.62
3  1946       8.6 
4  1977       8.6 
5  1990       8.6 
6  1974       8.55
# … with 80 more rows
```
…
