Working with Dates, Strings, and Factors
…
```
[1] "MONICA AND THE GANG INTRODUCE RACHEL TO THE \"REAL WORLD\" AFTER SHE LEAVES HER FIANCÉ AT THE ALTAR."
```

---

Change all the titles to capital letters.

```r
friends %>% 
  mutate(title = str_to_upper(title))
```

```
# A tibble: 235 × 5
  season episode title                description                         rating
   <dbl>   <dbl> <chr>                <chr>                                <dbl>
1      1       1 THE ONE WHERE MONIC… "Monica and the gang introduce Rac…    8.3
2      1       2 THE ONE WITH THE SO… "Ross finds out his ex-wife is pre…    8  
3      1       3 THE ONE WITH THE TH… "Monica becomes irritated when eve…    8.2
4      1       4 THE ONE WITH GEORGE… "Joey and Chandler take Ross to a …    8.1
5      1       5 THE ONE WITH THE EA… "Eager to spend time with Rachel, …    8.5
6      1       6 THE ONE WITH THE BU… "Monica's obsessiveness is put to …    8.1
# … with 229 more rows
```
…
```
 Factor w/ 10 levels "No answer","Don't know",..: 6 5 7 6 9 10 5 8 9 4 ...
```

---

```r
count(gss_cat, partyid)
```

```
# A tibble: 10 × 2
  partyid                n
  <fct>              <int>
1 No answer            154
2 Don't know             1
3 Other party          393
4 Strong republican   2314
5 Not str republican  3032
6 Ind,near rep        1791
# … with 4 more rows
```
…
---

```r
gss_cat %>% 
  mutate(partyid2 = fct_collapse(partyid,
                                 missing = c("No answer", "Don't know"),
                                 other = "Other party",
                                 rep = c("Strong republican", "Not str republican"),
                                 ind = c("Ind,near rep", "Independent", "Ind,near dem"),
                                 dem = c("Not str democrat", "Strong democrat"))
)
```

```
# A tibble: 21,483 × 10
   year marital         age race  rincome  partyid  relig denom tvhours partyid2
  <int> <fct>         <int> <fct> <fct>    <fct>    <fct> <fct>   <int> <fct>   
1  2000 Never married    26 White $8000 t… Ind,nea… Prot… Sout…      12 ind     
2  2000 Divorced         48 White $8000 t… Not str… Prot… Bapt…      NA rep     
3  2000 Widowed          67 White Not app… Indepen… Prot… No d…       2 ind     
4  2000 Never married    39 White Not app… Ind,nea… Orth… Not …       4 ind     
5  2000 Divorced         25 White Not app… Not str… None  Not …       1 dem     
6  2000 Married          25 White $20000 … Strong … Prot… Sout…      NA dem     
# … with 21,477 more rows
```
…
---

We can use these functions along with other data wrangling functions.

```r
gss_cat %>% 
  mutate(married_divorced = fct_match(marital, c("Married", "Divorced")))
```

```
# A tibble: 21,483 × 10
   year marital         age race  rincome partyid relig denom tvhours married_divorced
  <int> <fct>         <int> <fct> <fct>   <fct>   <fct> <fct>   <int> <lgl>           
1  2000 Never married    26 White $8000 … Ind,ne… Prot… Sout…      12 FALSE           
2  2000 Divorced         48 White $8000 … Not st… Prot… Bapt…      NA TRUE            
3  2000 Widowed          67 White Not ap… Indepe… Prot… No d…       2 FALSE           
4  2000 Never married    39 White Not ap… Ind,ne… Orth… Not …       4 FALSE           
5  2000 Divorced         25 White Not ap… Not st… None  Not …       1 TRUE            
6  2000 Married          25 White $20000… Strong… Prot… Sout…      NA TRUE            
# … with 21,477 more rows
```
…
