Data Wrangling: Part I
…
`slice()` and `filter()` 

---

`select` is used to select certain variables in the data frame. 

.left-panel[

```r
select(lapd, year, base_pay)
```

```
# A tibble: 68,564 × 2
   year base_pay
  <dbl>    <dbl>
1  2013  105765.
2  2013   47662.
3  2013  101288.
4  2013  118087.
5  2013   90322.
6  2013   62770.
# … with 68,558 more rows
```
]

--

.right-panel[

```r
lapd %>% 
  select(year, base_pay)
```

```
# A tibble: 68,564 × 2
   year base_pay
  <dbl>    <dbl>
1  2013  105765.
2  2013   47662.
3  2013  101288.
4  2013  118087.
5  2013   90322.
6  2013   62770.
# … with 68,558 more rows
```

]

---

`select` can also be used to drop certain variables if used with a negative sign.

```r
select(lapd, -row_id, -department_title)
```

```
# A tibble: 68,564 × 33
   year payroll_department record_number job_class_title         employment_type
  <dbl>              <dbl>         <dbl> <chr>                   <chr>          
1  2013               4301    1000027830 Police Detective II     Full Time      
2  2013               4302    1000155488 Clerk Typist            Full Time      
3  2013               4301    1000194958 Police Sergeant I       Full Time      
4  2013               4301    1000232317 Police Lieutenant I     Full Time      
5  2013               4302    1000329284 Principal Storekeeper   Full Time      
6  2013               4302    1001124320 Police Service Represe… Full Time      
# … with 68,558 more rows, and 28 more variables: hourly_or_event_rate <dbl>,
#   projected_annual_salary <dbl>, q1_payments <dbl>, q2_payments <dbl>,
#   q3_payments <dbl>, q4_payments <dbl>, payments_over_base_pay <dbl>,
#   percent_over_base_pay <dbl>, total_payments <dbl>, base_pay <dbl>,
#   permanent_bonus_pay <dbl>, longevity_bonus_pay <dbl>,
#   temporary_bonus_pay <dbl>, lump_sum_pay <dbl>, overtime_pay <dbl>,
#   other_pay_adjustments <dbl>, other_pay_payroll_explorer <dbl>, mou <chr>, …
```
…
## Selection helpers

`starts_with()`  
`ends_with()`  
`contains()`  

---

```r
select(lapd, starts_with("q"))
```

```
# A tibble: 68,564 × 4
  q1_payments q2_payments q3_payments q4_payments
        <dbl>       <dbl>       <dbl>       <dbl>
1      24931.      29182.      26546.      29605.
2      11344.      13212.      11508.      13443.
3      24184       28327.      28744.      33225.
4      29391.      36591.      32905.      37234.
5      20813       24136       21518.      25231.
6      16057.      17927.      14150.      17052.
# … with 68,558 more rows
```

---

```r
select(lapd, ends_with("pay"))
```

```
# A tibble: 68,564 × 8
  payments_over_ba… percent_over_bas… base_pay permanent_bonus… longevity_bonus…
              <dbl>             <dbl>    <dbl>            <dbl>            <dbl>
1             4499.                 0  105765.            3174.               0 
2             1845.                 0   47662.               0             1311.
3            13192.                 0  101288.            7364.               0 
4            18035.                 0  118087.            7087.               0 
5             1376.                 0   90322.               0             1251.
6             2415.                 0   62770.               0             1726.
# … with 68,558 more rows, and 3 more variables: temporary_bonus_pay <dbl>,
#   lump_sum_pay <dbl>, overtime_pay <dbl>
```

---

```r
select(lapd, contains("pay"))
```

```
# A tibble: 68,564 × 17
  payroll_department q1_payments q2_payments q3_payments q4_payments
               <dbl>       <dbl>       <dbl>       <dbl>       <dbl>
1               4301      24931.      29182.      26546.      29605.
2               4302      11344.      13212.      11508.      13443.
3               4301      24184       28327.      28744.      33225.
4               4301      29391.      36591.      32905.      37234.
5               4302      20813       24136       21518.      25231.
6               4302      16057.      17927.      14150.      17052.
# … with 68,558 more rows, and 12 more variables: payments_over_base_pay <dbl>,
#   percent_over_base_pay <dbl>, total_payments <dbl>, base_pay <dbl>,
#   permanent_bonus_pay <dbl>, longevity_bonus_pay <dbl>,
#   temporary_bonus_pay <dbl>, lump_sum_pay <dbl>, overtime_pay <dbl>,
#   other_pay_adjustments <dbl>, other_pay_payroll_explorer <dbl>,
#   pay_grade <chr>
```
…
--

.pull-right[

`filter()` subsetting rows based on a condition.

The data below includes rows when the recorded year is 2018.

```r
filter(lapd, year == 2018)
```

```
# A tibble: 14,824 × 35
  row_id            year department_title payroll_departm… record_number job_class_title
  <chr>            <dbl> <chr>                       <dbl>         <dbl> <chr>          
1 8-1000027830ctFu  2018 Police (LAPD)                4301    1000027830 Police Detecti…
2 8-1000194958ctFu  2018 Police (LAPD)                4301    1000194958 Police Sergean…
3 8-1000232317ctFu  2018 Police (LAPD)                4301    1000232317 Police Lieuten…
4 8-1001124320ctFu  2018 Police (LAPD)                4302    1001124320 Police Service…
5 8-1001221822ctFu  2018 Police (LAPD)                4301    1001221822 Police Officer…
6 8-1001317832ctFu  2018 Police (LAPD)                4301    1001317832 Police Officer…
# … with 14,818 more rows, and 29 more variables: employment_type <chr>,
#   hourly_or_event_rate <dbl>, projected_annual_salary <dbl>,
#   q1_payments <dbl>, q2_payments <dbl>, q3_payments <dbl>, q4_payments <dbl>,
#   payments_over_base_pay <dbl>, percent_over_base_pay <dbl>,
#   total_payments <dbl>, base_pay <dbl>, permanent_bonus_pay <dbl>,
#   longevity_bonus_pay <dbl>, temporary_bonus_pay <dbl>, lump_sum_pay <dbl>,
#   overtime_pay <dbl>, other_pay_adjustments <dbl>, …
```
…
class: middle

Q. According to [datausa.io](https://datausa.io/profile/geo/los-angeles-ca#:~:text=In%202018%2C%20Los%20Angeles%2C%20CA,%2462%2C474%2C%20a%203.78%25%20increase.) Los Angeles had a median household income of $62474 in 2018. How many LAPD staff members had a base pay higher than $62474 in year 2018 according to this data?

.footnote[Median household income is **not** the same thing as median employee income. Our aim is data wrangling and not necessarily statistical analysis for now.]

---

```r
lapd %>% 
  filter(year == 2018 & base_pay > 62474)
```

```
# A tibble: 11,690 × 35
  row_id            year department_title payroll_departm… record_number job_class_title
  <chr>            <dbl> <chr>                       <dbl>         <dbl> <chr>          
1 8-1000027830ctFu  2018 Police (LAPD)                4301    1000027830 Police Detecti…
2 8-1000194958ctFu  2018 Police (LAPD)                4301    1000194958 Police Sergean…
3 8-1000232317ctFu  2018 Police (LAPD)                4301    1000232317 Police Lieuten…
4 8-1001124320ctFu  2018 Police (LAPD)                4302    1001124320 Police Service…
5 8-1001221822ctFu  2018 Police (LAPD)                4301    1001221822 Police Officer…
6 8-1001317832ctFu  2018 Police (LAPD)                4301    1001317832 Police Officer…
# … with 11,684 more rows, and 29 more variables: employment_type <chr>,
#   hourly_or_event_rate <dbl>, projected_annual_salary <dbl>,
#   q1_payments <dbl>, q2_payments <dbl>, q3_payments <dbl>, q4_payments <dbl>,
#   payments_over_base_pay <dbl>, percent_over_base_pay <dbl>,
#   total_payments <dbl>, base_pay <dbl>, permanent_bonus_pay <dbl>,
#   longevity_bonus_pay <dbl>, temporary_bonus_pay <dbl>, lump_sum_pay <dbl>,
#   overtime_pay <dbl>, other_pay_adjustments <dbl>, …
```
…
---

class: middle 

Q. How many observations are available between 2013 and 2015 including 2013 and 2015?

--

```r
lapd %>% 
  filter(year >= 2013 & year <= 2015)
```

```
# A tibble: 40,227 × 35
  row_id            year department_title payroll_departm… record_number job_class_title
  <chr>            <dbl> <chr>                       <dbl>         <dbl> <chr>          
1 3-1000027830ctFu  2013 Police (LAPD)                4301    1000027830 Police Detecti…
2 3-1000155488ctFu  2013 Police (LAPD)                4302    1000155488 Clerk Typist   
3 3-1000194958ctFu  2013 Police (LAPD)                4301    1000194958 Police Sergean…
4 3-1000232317ctFu  2013 Police (LAPD)                4301    1000232317 Police Lieuten…
5 3-1000329284ctFu  2013 Police (LAPD)                4302    1000329284 Principal Stor…
6 3-1001124320ctFu  2013 Police (LAPD)                4302    1001124320 Police Service…
# … with 40,221 more rows, and 29 more variables: employment_type <chr>,
#   hourly_or_event_rate <dbl>, projected_annual_salary <dbl>,
#   q1_payments <dbl>, q2_payments <dbl>, q3_payments <dbl>, q4_payments <dbl>,
#   payments_over_base_pay <dbl>, percent_over_base_pay <dbl>,
#   total_payments <dbl>, base_pay <dbl>, permanent_bonus_pay <dbl>,
#   longevity_bonus_pay <dbl>, temporary_bonus_pay <dbl>, lump_sum_pay <dbl>,
#   overtime_pay <dbl>, other_pay_adjustments <dbl>, …
```
…
---

class: middle

```r
lapd %>% 
  filter(year == 2018) %>% 
  select(job_class_title, 
         employment_type, 
         base_pay)
```

```
# A tibble: 14,824 × 3
  job_class_title                  employment_type base_pay
  <chr>                            <chr>              <dbl>
1 Police Detective II              Full Time        119322.
2 Police Sergeant I                Full Time        113271.
3 Police Lieutenant II             Full Time        148116 
4 Police Service Representative II Full Time         78677.
5 Police Officer III               Full Time        109374.
6 Police Officer II                Full Time         95002.
# … with 14,818 more rows
```
…
**Goal**: 

Create a new variable called `base_pay_k` that represents `base_pay` in thousand dollars.

---

class: middle

```r
lapd %>% 
  mutate(base_pay_k = base_pay/1000)
```

```
# A tibble: 14,824 × 4
  job_class_title                  employment_type base_pay base_pay_k
  <chr>                            <chr>              <dbl>      <dbl>
1 Police Detective II              Full Time        119322.      119. 
2 Police Sergeant I                Full Time        113271.      113. 
3 Police Lieutenant II             Full Time        148116       148. 
4 Police Service Representative II Full Time         78677.       78.7
5 Police Officer III               Full Time        109374.      109. 
6 Police Officer II                Full Time         95002.       95.0
# … with 14,818 more rows
```
…
---

```r
lapd %>% 
  mutate(base_pay_level = case_when(
    base_pay < 0 ~ "Less than 0", 
    base_pay == 0 ~ "No Income",
    base_pay < 62474 & base_pay > 0 ~ "Less than Median, Greater than 0",
    base_pay > 62474 ~ "Greater than Median")) 
```

```
# A tibble: 14,824 × 4
  job_class_title                  employment_type base_pay base_pay_level     
  <chr>                            <chr>              <dbl> <chr>              
1 Police Detective II              Full Time        119322. Greater than Median
2 Police Sergeant I                Full Time        113271. Greater than Median
3 Police Lieutenant II             Full Time        148116  Greater than Median
4 Police Service Representative II Full Time         78677. Greater than Median
5 Police Officer III               Full Time        109374. Greater than Median
6 Police Officer II                Full Time         95002. Greater than Median
# … with 14,818 more rows
```
…
We can't really see what we have created 

```r
lapd %>% 
  mutate(base_pay_level = case_when(
    base_pay < 0 ~ "Less than 0", 
    base_pay == 0 ~ "No Income",
    base_pay < 62474 & base_pay > 0 ~ "Less than Median, Greater than 0",
    base_pay > 62474 ~ "Greater than Median")) %>% 
  select(base_pay_level)
```

```
# A tibble: 14,824 × 1
  base_pay_level     
  <chr>              
1 Greater than Median
2 Greater than Median
3 Greater than Median
4 Greater than Median
5 Greater than Median
6 Greater than Median
# … with 14,818 more rows
```
…
Make `job_class_title` and `employment_type` factor variables. 

---

class: middle

```r
lapd %>% 
  mutate(employment_type = as.factor(employment_type),
         job_class_title = as.factor(job_class_title)) 
```

```
# A tibble: 14,824 × 3
  job_class_title                  employment_type base_pay
  <fct>                            <fct>              <dbl>
1 Police Detective II              Full Time        119322.
2 Police Sergeant I                Full Time        113271.
3 Police Lieutenant II             Full Time        148116 
4 Police Service Representative II Full Time         78677.
5 Police Officer III               Full Time        109374.
6 Police Officer II                Full Time         95002.
# … with 14,818 more rows
```
…
## Word of caution

The functions `clean_names()`, `select()`, `filter()`, `mutate()` all take a data frame as the first argument. Even though we do not see it, the data frame is piped through from the previous step of code at each step. 
When we use these functions without the `%>%` we have to include the data frame explicitly.

.pull-left[
Data frame is used as the first argument

```r
clean_names(lapd)
```

```
# A tibble: 14,824 × 3
  job_class_title                  employment_type base_pay
  <chr>                            <chr>              <dbl>
1 Police Detective II              Full Time        119322.
2 Police Sergeant I                Full Time        113271.
3 Police Lieutenant II             Full Time        148116 
4 Police Service Representative II Full Time         78677.
5 Police Officer III               Full Time        109374.
6 Police Officer II                Full Time         95002.
# … with 14,818 more rows
```
]

.pull-right[
Data frame is piped

```r
lapd %>% 
  clean_names()
```

```
# A tibble: 14,824 × 3
  job_class_title                  employment_type base_pay
  <chr>                            <chr>              <dbl>
1 Police Detective II              Full Time        119322.
2 Police Sergeant I                Full Time        113271.
3 Police Lieutenant II             Full Time        148116 
4 Police Service Representative II Full Time         78677.
5 Police Officer III               Full Time        109374.
6 Police Officer II                Full Time         95002.
# … with 14,818 more rows
```
…
